{
  "template":"components/section-logo-grid",
  "class":"medium-bottom-margin",
  "text":"Industry Expertise",
  "filters":[
    {"tag":"Finacial","text":"Financial Services"},
    {"tag":"HealthCare","text":"Healthcare & Life Sciences"},
    {"tag":"Manufacturing","text":"Manufacturing"},
    {"tag":"Other","text":"Other"}
  ],
  "items":[
    {
      "tags":["Manufacturing"],
      "src":"https://hztl-fed.azureedge.net/hztl/images/logos/3M.png",
      "alt":"3M"
    },
    {
      "tags":["HealthCare"],
      "src":"https://hztl-fed.azureedge.net/hztl/images/logos/AdvisoryBoard.png",
      "alt":"Advisory Board"
    },
    {
      "tags":["HealthCare"],
      "src":"https://hztl-fed.azureedge.net/hztl/images/logos/Allianze.png",
      "alt":"Allianze"
    },
    {
      "tags":["HealthCare"],
      "src":"https://hztl-fed.azureedge.net/hztl/images/logos/Allina.png",
      "alt":"Allina"
    },
    {
      "tags":["Featured","Manufacturing"],
      "src":"https://hztl-fed.azureedge.net/hztl/images/logos/AmericanStandard_Logo.png",
      "alt":"American Standard"
    },
    {
      "tags":["Manufacturing"],
      "src":"/assets/images/logos/AndersenWindows.png",
      "alt":"Andersen Windows"
    },
    {
      "tags":["HealthCare"],
      "src":"/assets/images/logos/BCBS_LA.png",
      "alt":"Blue Cross Blue Shield of Louisiana"
    },
    {
      "tags":["HealthCare"],
      "src":"/assets/images/logos/BostonScientific.png",
      "alt":"Boston Scientific"
    },
    {
      "tags":["Finacial"],
      "src":"/assets/images/logos/Bremer.png",
      "alt":"Bremer"
    },
    {
      "tags":["Featured","Manufacturing"],
      "src":"https://hztl-fed.azureedge.net/hztl/images/logos/Cat_Logo.png",
      "alt":"CAT"
    },
    {
      "tags":["Featured","Other"],
      "src":"https://hztl-fed.azureedge.net/hztl/images/logos/Caribou_Logo.png",
      "alt":"Caribou Coffee"
    },
    {
      "tags":["Manufacturing"],
      "src":"/assets/images/logos/Cargill.png",
      "alt":"Cargill"
    },
    {
      "tags":["Other"],
      "src":"/assets/images/logos/Cenex_logo.png",
      "alt":"Cenex"
    },
    {
      "tags":["HealthCare"],
      "src":"/assets/images/logos/ChildrensHealth_logo.png",
      "alt":"Children's Health"
    },
    {
      "tags":["Other"],
      "src":"/assets/images/logos/CHS.png",
      "alt":"CHS"
    },
    {
      "tags":["Manufacturing","Other"],
      "src":"/assets/images/logos/Cushman.png",
      "alt":"Cushman & Wakefield"
    },
    {
      "tags":["Manufacturing"],
      "src":"/assets/images/logos/Daltile_logo.png",
      "alt":"Daltile"
    },
    {
      "tags":["Other"],
      "src":"/assets/images/logos/Deluxe.png",
      "alt":"Deluxe"
    },
    {
      "tags":["HealthCare"],
      "src":"/assets/images/logos/EncompassHealth_logo.png",
      "alt":"Encompass Health"
    },
    {
      "tags":["Finacial"],
      "src":"/assets/images/logos/FederalReserve.png",
      "alt":"Federal Reserve Bank"
    },
    {
      "tags":["Finacial"],
      "src":"/assets/images/logos/First_Tech.png",
      "alt":"First Tech"
    },
    {
      "tags":["Finacial"],
      "src":"/assets/images/logos/FisherInvestments.png",
      "alt":"Fisher Investments"
    },
    {
      "tags":["Finacial"],
      "src":"/assets/images/logos/Foresters.png",
      "alt":"Foresters Financial"
    },
    {
      "tags":["Featured","Manufacturing"],
      "src":"https://hztl-fed.azureedge.net/hztl/images/logos/Formica_Logo.png",
      "alt":"Formica"
    },
    {
      "tags":["Other"],
      "src":"/assets/images/logos/GCI.png",
      "alt":"GCI"
    },
    {
      "tags":["Featured","Other"],
      "src":"/assets/images/logos/HardRock_Logo.png",
      "alt":"Seminole Hard Rock Support Services"
    },
    {
      "tags":["Finacial"],
      "src":"/assets/images/logos/HoraceMann_Logo.png",
      "alt":"Horace Mann"
    },
    {
      "tags":["HealthCare"],
      "src":"/assets/images/logos/MayoHealth_logo.png",
      "alt":"Mayo Clinic"
    },
    {
      "tags":["Featured","Other"],
      "src":"/assets/images/logos/MIA_Logo.png",
      "alt":"Minneapolis Institute of Art"
    },
    {
      "tags":["Featured","Manufacturing"],
      "src":"https://hztl-fed.azureedge.net/hztl/images/logos/Milwaukee_Logo.png",
      "alt":"Milwaukee Tool"
    },
    {
      "tags":["HealthCare"],
      "src":"/assets/images/logos/MUSC.png",
      "alt":"MUSC"
    },
    {
      "tags":["Featured","Finacial"],
      "src":"https://hztl-fed.azureedge.net/hztl/images/logos/NorthwesternMutual_Logo.png",
      "alt":"Northwestern Mutual"
    },
    {
      "tags":["Finacial"],
      "src":"/assets/images/logos/NewYorkLife.png",
      "alt":"New York Life"
    },
    {
      "tags":["Other"],
      "src":"/assets/images/logos/OlivetUniversity_logo.png",
      "alt":"Olivet University"
    },
    {
      "tags":["Featured","Other"],
      "src":"https://hztl-fed.azureedge.net/hztl/images/logos/PODS_Logo.png",
      "alt":"PODS"
    },
    {
      "tags":["Finacial"],
      "src":"/assets/images/logos/Raymond_James.png",
      "alt":"Raymond James"
    },
    {
      "tags":["Other"],
      "src":"/assets/images/logos/Salesforce_logo.png",
      "alt":"Salesforce"
    },
    {
      "tags":["HealthCare"],
      "src":"/assets/images/logos/Starkey_Hearing_Tech.png",
      "alt":"Starkey Hearing Technology"
    },
    {
      "tags":["Featured","Manufacturing"],
      "src":"https://hztl-fed.azureedge.net/hztl/images/logos/SubZero_Logo.png",
      "alt":"SubZero Wolf"
    },
    {
      "tags":["Featured","Manufacturing"],
      "src":"https://hztl-fed.azureedge.net/hztl/images/logos/Toro_Logo.png",
      "alt":"Toro"
    },
    {
      "tags":["Finacial"],
      "src":"/assets/images/logos/TCW_logo.png",
      "alt":"TCW"
    },
    {
      "tags":["Featured","HealthCare"],
      "src":"https://hztl-fed.azureedge.net/hztl/images/logos/UHG_Logo.png",
      "alt":"UnitedHealth Group"
    },
    {
      "tags":["HealthCare"],
      "src":"/assets/images/logos/UnitedHealth_logo.png",
      "alt":"UnitedHealthcare"
    },
    {
      "tags":["Manufacturing"],
      "src":"/assets/images/logos/Xrite.png",
      "alt":"X-rite Pantone"
    }
  ]
}
