{
  "title": "Sitecore Experience Commerce | Horizontal Digital",
  "meta": {
    "description": "An experience-forward digital consultancy, solving CX challenges across the full customer lifecycle."
  },
  "og": {
    "title":"Sitecore Experience Commerce | Horizontal Digital",
    "description":"An experience-forward digital consultancy, solving CX challenges across the full customer lifecycle.",
    "url":"https://horizontaldigital.com/platforms",
    "sitename":"Horizontal Digital",
    "img":{
      "src":"https://hztl-fed.azureedge.net/hztl/images/HZTL_SocialImage.png"
    }
  },
  "components": [
    {
      "template":"components/section-col-2-3",
      "class":"medium-bottom-margin force-top-margin",
      "title":"Sitecore Experience Commerce",
      "content": [
        {
          "template":"components/rte",
          "content":"<h1 class=\"display-1\">Transactions that serve relationships</h1><p>Ecommerce experiences are the last place you want to bring friction into your customer’s journey. Yet 9 out of 10 customers feel that their digital transactions are less than optimal.</p><p>Our deep expertise with the Sitecore Experience Commerce (XC) helps solves for this dilemma. We know how to maximize XC’s capabilities to connect the marketing content your customer is engaging with across each of their ecomm moments. The result: Fluid and tailored experiences that seamlessly transition into transactions for your B2B and B2C customers.</p>"
        }
      ]
    },
    {
      "template":"components/section-big-quote",
      "class":"theme-dark medium-bottom-margin",
      "size":"display-3",
      "quote":"<p>Every time we help our clients unify commerce with the rest of their digital experiences, they see immediate uplift in commerce performance. The strategy simply works.</p>",
      "cite":"Brijesh Patel | Regional Practice Lead, Sitecore Commerce MVP"
    },
    {
      "template":"components/section-col-single",
      "title":"What we do",
      "content": [
        {
          "template":"components/rte",
          "content":"<h3 class=\"display-2\">B2B/B2C/B2B2C</h3><p>Successful commerce solutions mean treating your customers like… people. Whether B2B or B2C, Horizontal’s commerce experience strategies ensure your customer-centricity shines through from end to end.</p><h3 class=\"display-2\">Globalized solutions</h3><p>Multi-lingual, multi-currency, multi-catalog implementations streamline your global commerce operations with secure, performant experiences worldwide.</p><h3 class=\"display-2\">Commerce experience alignment</h3><p>Too often, the transactional experience sits apart from your other digital touchpoints. Our solutions integrate your content and brand for consistently intuitive user journeys and friction-free experiences at every stage.</p><h3 class=\"display-2\">Commerce operations</h3><p>We untangle complex catalogs, streamline product information management and simplify pricing & promotion management to ensure your commerce teams focus their time on value-add workstreams. </p><h3 class=\"display-2\">Compliant solutions</h3><p>GDPR, CCPA, ADA, 501c3, PCI… we design solutions that start compliant and stay compliant.</p><h3 class=\"display-2\">Cloud integration strategy</h3><p>Many enterprises still rely on legacy on-premise solutions to deliver components of their ecommerce experience, like ERP or PIM. We got this: hybrid solutions and progressive cloud migration strategies are our daily bread.</p>"
        }
      ]
    }
  ]
}
